%!PS-Adobe-3.0 EPSF-3.0
%%Creator: www.inkscape.org
%%LanguageLevel: 2
%%DocumentSuppliedResources: (atend)
%%BoundingBox: 0 0 19 19
%%HiResBoundingBox: 0 0 18.670328 18.670307
%%DocumentSuppliedResources: (atend)
%%EndComments
%%BeginProlog
%%BeginResource: procset xpdf 3.00 0
%%Copyright: Copyright 1996-2004 Glyph & Cog, LLC
/xpdf 75 dict def xpdf begin
% PDF special state
/pdfDictSize 15 def
/pdfSetup {
  3 1 roll 2 array astore
  /setpagedevice where {
    pop 3 dict begin
      /PageSize exch def
      /ImagingBBox null def
      { /Duplex true def } if
    currentdict end setpagedevice
  } {
    pop pop
  } ifelse
} def
/pdfStartPage {
  pdfDictSize dict begin
  /pdfFillCS [] def
  /pdfFillXform {} def
  /pdfStrokeCS [] def
  /pdfStrokeXform {} def
  /pdfFill [0] def
  /pdfStroke [0] def
  /pdfFillOP false def
  /pdfStrokeOP false def
  /pdfLastFill false def
  /pdfLastStroke false def
  /pdfTextMat [1 0 0 1 0 0] def
  /pdfFontSize 0 def
  /pdfCharSpacing 0 def
  /pdfTextRender 0 def
  /pdfPatternCS false def
  /pdfTextRise 0 def
  /pdfWordSpacing 0 def
  /pdfHorizScaling 1 def
  /pdfTextClipPath [] def
} def
/pdfEndPage { end } def
% PDF color state
/cs { /pdfFillXform exch def dup /pdfFillCS exch def
      setcolorspace } def
/CS { /pdfStrokeXform exch def dup /pdfStrokeCS exch def
      setcolorspace } def
/sc { pdfLastFill not { pdfFillCS setcolorspace } if
      dup /pdfFill exch def aload pop pdfFillXform setcolor
     /pdfLastFill true def /pdfLastStroke false def } def
/SC { pdfLastStroke not { pdfStrokeCS setcolorspace } if
      dup /pdfStroke exch def aload pop pdfStrokeXform setcolor
     /pdfLastStroke true def /pdfLastFill false def } def
/op { /pdfFillOP exch def
      pdfLastFill { pdfFillOP setoverprint } if } def
/OP { /pdfStrokeOP exch def
      pdfLastStroke { pdfStrokeOP setoverprint } if } def
/fCol {
  pdfLastFill not {
    pdfFillCS setcolorspace
    pdfFill aload pop pdfFillXform setcolor
    pdfFillOP setoverprint
    /pdfLastFill true def /pdfLastStroke false def
  } if
} def
/sCol {
  pdfLastStroke not {
    pdfStrokeCS setcolorspace
    pdfStroke aload pop pdfStrokeXform setcolor
    pdfStrokeOP setoverprint
    /pdfLastStroke true def /pdfLastFill false def
  } if
} def
% build a font
/pdfMakeFont {
  4 3 roll findfont
  4 2 roll matrix scale makefont
  dup length dict begin
    { 1 index /FID ne { def } { pop pop } ifelse } forall
    /Encoding exch def
    currentdict
  end
  definefont pop
} def
/pdfMakeFont16 {
  exch findfont
  dup length dict begin
    { 1 index /FID ne { def } { pop pop } ifelse } forall
    /WMode exch def
    currentdict
  end
  definefont pop
} def
% graphics state operators
/q { gsave pdfDictSize dict begin } def
/Q {
  end grestore
  /pdfLastFill where {
    pop
    pdfLastFill {
      pdfFillOP setoverprint
    } {
      pdfStrokeOP setoverprint
    } ifelse
  } if
} def
/cm { concat } def
/d { setdash } def
/i { setflat } def
/j { setlinejoin } def
/J { setlinecap } def
/M { setmiterlimit } def
/w { setlinewidth } def
% path segment operators
/m { moveto } def
/l { lineto } def
/c { curveto } def
/re { 4 2 roll moveto 1 index 0 rlineto 0 exch rlineto
      neg 0 rlineto closepath } def
/h { closepath } def
% path painting operators
/S { sCol stroke } def
/Sf { fCol stroke } def
/f { fCol fill } def
/f* { fCol eofill } def
% clipping operators
/W { clip newpath } def
/W* { eoclip newpath } def
/Ws { strokepath clip newpath } def
% text state operators
/Tc { /pdfCharSpacing exch def } def
/Tf { dup /pdfFontSize exch def
      dup pdfHorizScaling mul exch matrix scale
      pdfTextMat matrix concatmatrix dup 4 0 put dup 5 0 put
      exch findfont exch makefont setfont } def
/Tr { /pdfTextRender exch def } def
/Tp { /pdfPatternCS exch def } def
/Ts { /pdfTextRise exch def } def
/Tw { /pdfWordSpacing exch def } def
/Tz { /pdfHorizScaling exch def } def
% text positioning operators
/Td { pdfTextMat transform moveto } def
/Tm { /pdfTextMat exch def } def
% text string operators
/cshow where {
  pop
  /cshow2 {
    dup {
      pop pop
      1 string dup 0 3 index put 3 index exec
    } exch cshow
    pop pop
  } def
}{
  /cshow2 {
    currentfont /FontType get 0 eq {
      0 2 2 index length 1 sub {
        2 copy get exch 1 add 2 index exch get
        2 copy exch 256 mul add
        2 string dup 0 6 5 roll put dup 1 5 4 roll put
        3 index exec
      } for
    } {
      dup {
        1 string dup 0 3 index put 3 index exec
      } forall
    } ifelse
    pop pop
  } def
} ifelse
/awcp {
  exch {
    false charpath
    5 index 5 index rmoveto
    6 index eq { 7 index 7 index rmoveto } if
  } exch cshow2
  6 {pop} repeat
} def
/Tj {
  fCol
  1 index stringwidth pdfTextMat idtransform pop
  sub 1 index length dup 0 ne { div } { pop pop 0 } ifelse
  pdfWordSpacing pdfHorizScaling mul 0 pdfTextMat dtransform 32
  4 3 roll pdfCharSpacing pdfHorizScaling mul add 0
  pdfTextMat dtransform
  6 5 roll Tj1
} def
/Tj16 {
  fCol
  2 index stringwidth pdfTextMat idtransform pop
  sub exch div
  pdfWordSpacing pdfHorizScaling mul 0 pdfTextMat dtransform 32
  4 3 roll pdfCharSpacing pdfHorizScaling mul add 0
  pdfTextMat dtransform
  6 5 roll Tj1
} def
/Tj16V {
  fCol
  2 index stringwidth pdfTextMat idtransform exch pop
  sub exch div
  0 pdfWordSpacing pdfTextMat dtransform 32
  4 3 roll pdfCharSpacing add 0 exch
  pdfTextMat dtransform
  6 5 roll Tj1
} def
/Tj1 {
  0 pdfTextRise pdfTextMat dtransform rmoveto
  currentpoint 8 2 roll
  pdfTextRender 1 and 0 eq pdfPatternCS not and {
    6 copy awidthshow
  } if
  pdfTextRender 3 and dup 1 eq exch 2 eq or {
    7 index 7 index moveto
    6 copy
    currentfont /FontType get 3 eq { fCol } { sCol } ifelse
    false awcp currentpoint stroke moveto
  } if
  pdfTextRender 4 and 0 ne pdfPatternCS or {
    8 6 roll moveto
    false awcp
    /pdfTextClipPath [ pdfTextClipPath aload pop
      {/moveto cvx}
      {/lineto cvx}
      {/curveto cvx}
      {/closepath cvx}
    pathforall ] def
    currentpoint newpath moveto
  } {
    8 {pop} repeat
  } ifelse
  0 pdfTextRise neg pdfTextMat dtransform rmoveto
} def
/TJm { pdfFontSize 0.001 mul mul neg 0
       pdfTextMat dtransform rmoveto } def
/TJmV { pdfFontSize 0.001 mul mul neg 0 exch
        pdfTextMat dtransform rmoveto } def
/Tclip { pdfTextClipPath cvx exec clip newpath
         /pdfTextClipPath [] def } def
/Tclip* { pdfTextClipPath cvx exec eoclip newpath
         /pdfTextClipPath [] def } def
% Level 2 image operators
/pdfImBuf 100 string def
/pdfIm {
  image
  { currentfile pdfImBuf readline
    not { pop exit } if
    (%-EOD-) eq { exit } if } loop
} def
/pdfImM {
  fCol imagemask
  { currentfile pdfImBuf readline
    not { pop exit } if
    (%-EOD-) eq { exit } if } loop
} def
/pr { 2 index 2 index 3 2 roll putinterval 4 add } def
/pdfImClip {
  gsave
  0 2 4 index length 1 sub {
    dup 4 index exch 2 copy
    get 5 index div put
    1 add 3 index exch 2 copy
    get 3 index div put
  } for
  pop pop rectclip
} def
/pdfImClipEnd { grestore } def
% shading operators
/colordelta {
  false 0 1 3 index length 1 sub {
    dup 4 index exch get 3 index 3 2 roll get sub abs 0.004 gt {
      pop true
    } if
  } for
  exch pop exch pop
} def
/funcCol { func n array astore } def
/funcSH {
  dup 0 eq {
    true
  } {
    dup 6 eq {
      false
    } {
      4 index 4 index funcCol dup
      6 index 4 index funcCol dup
      3 1 roll colordelta 3 1 roll
      5 index 5 index funcCol dup
      3 1 roll colordelta 3 1 roll
      6 index 8 index funcCol dup
      3 1 roll colordelta 3 1 roll
      colordelta or or or
    } ifelse
  } ifelse
  {
    1 add
    4 index 3 index add 0.5 mul exch 4 index 3 index add 0.5 mul exch
    6 index 6 index 4 index 4 index 4 index funcSH
    2 index 6 index 6 index 4 index 4 index funcSH
    6 index 2 index 4 index 6 index 4 index funcSH
    5 3 roll 3 2 roll funcSH pop pop
  } {
    pop 3 index 2 index add 0.5 mul 3 index  2 index add 0.5 mul
    funcCol sc
    dup 4 index exch mat transform m
    3 index 3 index mat transform l
    1 index 3 index mat transform l
    mat transform l pop pop h f*
  } ifelse
} def
/axialCol {
  dup 0 lt {
    pop t0
  } {
    dup 1 gt {
      pop t1
    } {
      dt mul t0 add
    } ifelse
  } ifelse
  func n array astore
} def
/axialSH {
  dup 0 eq {
    true
  } {
    dup 8 eq {
      false
    } {
      2 index axialCol 2 index axialCol colordelta
    } ifelse
  } ifelse
  {
    1 add 3 1 roll 2 copy add 0.5 mul
    dup 4 3 roll exch 4 index axialSH
    exch 3 2 roll axialSH
  } {
    pop 2 copy add 0.5 mul
    axialCol sc
    exch dup dx mul x0 add exch dy mul y0 add
    3 2 roll dup dx mul x0 add exch dy mul y0 add
    dx abs dy abs ge {
      2 copy yMin sub dy mul dx div add yMin m
      yMax sub dy mul dx div add yMax l
      2 copy yMax sub dy mul dx div add yMax l
      yMin sub dy mul dx div add yMin l
      h f*
    } {
      exch 2 copy xMin sub dx mul dy div add xMin exch m
      xMax sub dx mul dy div add xMax exch l
      exch 2 copy xMax sub dx mul dy div add xMax exch l
      xMin sub dx mul dy div add xMin exch l
      h f*
    } ifelse
  } ifelse
} def
/radialCol {
  dup t0 lt {
    pop t0
  } {
    dup t1 gt {
      pop t1
    } if
  } ifelse
  func n array astore
} def
/radialSH {
  dup 0 eq {
    true
  } {
    dup 8 eq {
      false
    } {
      2 index dt mul t0 add radialCol
      2 index dt mul t0 add radialCol colordelta
    } ifelse
  } ifelse
  {
    1 add 3 1 roll 2 copy add 0.5 mul
    dup 4 3 roll exch 4 index radialSH
    exch 3 2 roll radialSH
  } {
    pop 2 copy add 0.5 mul dt mul t0 add
    radialCol sc
    encl {
      exch dup dx mul x0 add exch dup dy mul y0 add exch dr mul r0 add
      0 360 arc h
      dup dx mul x0 add exch dup dy mul y0 add exch dr mul r0 add
      360 0 arcn h f
    } {
      2 copy
      dup dx mul x0 add exch dup dy mul y0 add exch dr mul r0 add
      a1 a2 arcn
      dup dx mul x0 add exch dup dy mul y0 add exch dr mul r0 add
      a2 a1 arcn h
      dup dx mul x0 add exch dup dy mul y0 add exch dr mul r0 add
      a1 a2 arc
      dup dx mul x0 add exch dup dy mul y0 add exch dr mul r0 add
      a2 a1 arc h f
    } ifelse
  } ifelse
} def
end
%%EndResource
%%EndProlog
%%BeginSetup
xpdf begin
%%EndSetup
pdfStartPage
[] 0 d
1 i
0 j
0 J
10 M
1 w
/DeviceGray {} cs
[0] sc
/DeviceGray {} CS
[0] SC
false op
false OP
{} settransfer
q
[0.8 0 0 -0.8 0 19] cm
q
[1 0 0 1 0 0] cm
q
[1 0 0 1 -348.33105 -517.83609] cm
q
[1.146822 0 0 1.146822 61.005341 165.58783] cm
q
/DeviceRGB {} cs
[1 1 1] sc
270.07806 317.67285 m
270.07977 322.84338 265.8919 327.03723 260.72137 327.03979 c
255.55125 327.04232 251.35743 322.85446 251.35444 317.68392 c
251.35444 317.68053 251.35444 317.67711 251.35444 317.67284 c
251.35061 312.50231 255.53976 308.30846 260.71029 308.30507 c
265.88043 308.30254 270.07424 312.49123 270.07806 317.66179 c
270.07806 317.66519 270.07806 317.66943 270.07806 317.67285 c
h
f
Q
q
[0.54498 0 0 0.54498 411.367 265.3489] cm
q
/DeviceRGB {} cs
[0.0039 0.0039 0.0039] sc
-276.45773 77.3403 m
-281.62964 77.3403 -286.00625 79.14654 -289.58908 82.75439 c
-293.26569 86.4888 -295.10477 90.90759 -295.10477 96.01074 c
-295.10477 101.11392 -293.26569 105.50143 -289.58908 109.17334 c
-285.91406 112.84525 -281.53589 114.68121 -276.45773 114.68121 c
-271.31707 114.68121 -266.86233 112.82962 -263.09201 109.12646 c
-259.5404 105.61084 -257.76382 101.23892 -257.76382 96.01074 c
-257.76382 90.78259 -259.57009 86.3638 -263.18576 82.75439 c
-266.79984 79.14655 -271.22333 77.3403 -276.45773 77.3403 c
h
-276.41086 80.70126 m
-272.17334 80.70126 -268.57642 82.195 -265.61545 85.18097 c
-262.62482 88.13883 -261.12949 91.74664 -261.12949 96.01074 c
-261.12949 100.30453 -262.59201 103.86706 -265.52329 106.69833 c
-268.60611 109.7499 -272.2374 111.27337 -276.41086 111.27337 c
-280.58591 111.27337 -284.18436 109.76397 -287.20627 106.74676 c
-290.22815 103.72644 -291.73911 100.14828 -291.73911 96.01074 c
-291.73911 91.87164 -290.21253 88.26224 -287.1594 85.18097 c
-284.23123 82.19501 -280.64841 80.70126 -276.41086 80.70126 c
h
f
Q
q
/DeviceRGB {} cs
[0.0039 0.0039 0.0039] sc
-282.61871 92.66385 m
-280.51715 92.66385 l
-279.34369 92.66385 -278.84994 93.22791 -278.84994 94.2576 c
-278.84994 95.05451 -279.27026 95.82169 -280.44528 95.82169 c
-282.61871 95.82169 l
-282.61871 92.66385 l
-282.61871 92.66385 l
h
-285.19843 101.0686 m
-282.59061 101.0686 l
-282.59061 97.73574 l
-280.57495 97.73574 l
-277.039 97.73574 -276.27023 95.61855 -276.27023 94.24197 c
-276.27023 92.19821 -277.29992 90.74975 -280.08276 90.74975 c
-285.19842 90.74975 l
-285.19842 101.0686 l
-285.19843 101.0686 l
h
f
Q
q
/DeviceRGB {} cs
[0.0039 0.0039 0.0039] sc
-275.56866 101.0686 m
-271.56707 101.0686 l
-268.4233 101.0686 -266.30764 99.57641 -266.30764 95.90918 c
-266.30764 92.24197 -268.4233 90.74976 -271.56707 90.74976 c
-275.56866 90.74976 l
-275.56866 101.0686 l
h
-272.98895 92.92477 m
-271.52487 92.92477 l
-269.58267 92.92477 -268.88736 94.24197 -268.88736 95.90918 c
-268.88736 97.57483 -269.58267 98.89514 -271.51083 98.89514 c
-272.98895 98.89514 l
-272.98895 92.92477 l
-272.98895 92.92477 l
h
f
Q
Q
Q
Q
Q
Q
showpage
%%PageTrailer
pdfEndPage
%%Trailer
end
%%DocumentSuppliedResources:
%%EOF
