%!PS-Adobe-3.0 EPSF-3.0
%%Creator: www.inkscape.org
%%LanguageLevel: 2
%%DocumentSuppliedResources: (atend)
%%BoundingBox: 0 0 26 26
%%HiResBoundingBox: 0 0 25.184 25.184
%%DocumentSuppliedResources: (atend)
%%EndComments
%%BeginProlog
%%BeginResource: procset xpdf 3.00 0
%%Copyright: Copyright 1996-2004 Glyph & Cog, LLC
/xpdf 75 dict def xpdf begin
% PDF special state
/pdfDictSize 15 def
/pdfSetup {
  3 1 roll 2 array astore
  /setpagedevice where {
    pop 3 dict begin
      /PageSize exch def
      /ImagingBBox null def
      { /Duplex true def } if
    currentdict end setpagedevice
  } {
    pop pop
  } ifelse
} def
/pdfStartPage {
  pdfDictSize dict begin
  /pdfFillCS [] def
  /pdfFillXform {} def
  /pdfStrokeCS [] def
  /pdfStrokeXform {} def
  /pdfFill [0] def
  /pdfStroke [0] def
  /pdfFillOP false def
  /pdfStrokeOP false def
  /pdfLastFill false def
  /pdfLastStroke false def
  /pdfTextMat [1 0 0 1 0 0] def
  /pdfFontSize 0 def
  /pdfCharSpacing 0 def
  /pdfTextRender 0 def
  /pdfPatternCS false def
  /pdfTextRise 0 def
  /pdfWordSpacing 0 def
  /pdfHorizScaling 1 def
  /pdfTextClipPath [] def
} def
/pdfEndPage { end } def
% PDF color state
/cs { /pdfFillXform exch def dup /pdfFillCS exch def
      setcolorspace } def
/CS { /pdfStrokeXform exch def dup /pdfStrokeCS exch def
      setcolorspace } def
/sc { pdfLastFill not { pdfFillCS setcolorspace } if
      dup /pdfFill exch def aload pop pdfFillXform setcolor
     /pdfLastFill true def /pdfLastStroke false def } def
/SC { pdfLastStroke not { pdfStrokeCS setcolorspace } if
      dup /pdfStroke exch def aload pop pdfStrokeXform setcolor
     /pdfLastStroke true def /pdfLastFill false def } def
/op { /pdfFillOP exch def
      pdfLastFill { pdfFillOP setoverprint } if } def
/OP { /pdfStrokeOP exch def
      pdfLastStroke { pdfStrokeOP setoverprint } if } def
/fCol {
  pdfLastFill not {
    pdfFillCS setcolorspace
    pdfFill aload pop pdfFillXform setcolor
    pdfFillOP setoverprint
    /pdfLastFill true def /pdfLastStroke false def
  } if
} def
/sCol {
  pdfLastStroke not {
    pdfStrokeCS setcolorspace
    pdfStroke aload pop pdfStrokeXform setcolor
    pdfStrokeOP setoverprint
    /pdfLastStroke true def /pdfLastFill false def
  } if
} def
% build a font
/pdfMakeFont {
  4 3 roll findfont
  4 2 roll matrix scale makefont
  dup length dict begin
    { 1 index /FID ne { def } { pop pop } ifelse } forall
    /Encoding exch def
    currentdict
  end
  definefont pop
} def
/pdfMakeFont16 {
  exch findfont
  dup length dict begin
    { 1 index /FID ne { def } { pop pop } ifelse } forall
    /WMode exch def
    currentdict
  end
  definefont pop
} def
% graphics state operators
/q { gsave pdfDictSize dict begin } def
/Q {
  end grestore
  /pdfLastFill where {
    pop
    pdfLastFill {
      pdfFillOP setoverprint
    } {
      pdfStrokeOP setoverprint
    } ifelse
  } if
} def
/cm { concat } def
/d { setdash } def
/i { setflat } def
/j { setlinejoin } def
/J { setlinecap } def
/M { setmiterlimit } def
/w { setlinewidth } def
% path segment operators
/m { moveto } def
/l { lineto } def
/c { curveto } def
/re { 4 2 roll moveto 1 index 0 rlineto 0 exch rlineto
      neg 0 rlineto closepath } def
/h { closepath } def
% path painting operators
/S { sCol stroke } def
/Sf { fCol stroke } def
/f { fCol fill } def
/f* { fCol eofill } def
% clipping operators
/W { clip newpath } def
/W* { eoclip newpath } def
/Ws { strokepath clip newpath } def
% text state operators
/Tc { /pdfCharSpacing exch def } def
/Tf { dup /pdfFontSize exch def
      dup pdfHorizScaling mul exch matrix scale
      pdfTextMat matrix concatmatrix dup 4 0 put dup 5 0 put
      exch findfont exch makefont setfont } def
/Tr { /pdfTextRender exch def } def
/Tp { /pdfPatternCS exch def } def
/Ts { /pdfTextRise exch def } def
/Tw { /pdfWordSpacing exch def } def
/Tz { /pdfHorizScaling exch def } def
% text positioning operators
/Td { pdfTextMat transform moveto } def
/Tm { /pdfTextMat exch def } def
% text string operators
/cshow where {
  pop
  /cshow2 {
    dup {
      pop pop
      1 string dup 0 3 index put 3 index exec
    } exch cshow
    pop pop
  } def
}{
  /cshow2 {
    currentfont /FontType get 0 eq {
      0 2 2 index length 1 sub {
        2 copy get exch 1 add 2 index exch get
        2 copy exch 256 mul add
        2 string dup 0 6 5 roll put dup 1 5 4 roll put
        3 index exec
      } for
    } {
      dup {
        1 string dup 0 3 index put 3 index exec
      } forall
    } ifelse
    pop pop
  } def
} ifelse
/awcp {
  exch {
    false charpath
    5 index 5 index rmoveto
    6 index eq { 7 index 7 index rmoveto } if
  } exch cshow2
  6 {pop} repeat
} def
/Tj {
  fCol
  1 index stringwidth pdfTextMat idtransform pop
  sub 1 index length dup 0 ne { div } { pop pop 0 } ifelse
  pdfWordSpacing pdfHorizScaling mul 0 pdfTextMat dtransform 32
  4 3 roll pdfCharSpacing pdfHorizScaling mul add 0
  pdfTextMat dtransform
  6 5 roll Tj1
} def
/Tj16 {
  fCol
  2 index stringwidth pdfTextMat idtransform pop
  sub exch div
  pdfWordSpacing pdfHorizScaling mul 0 pdfTextMat dtransform 32
  4 3 roll pdfCharSpacing pdfHorizScaling mul add 0
  pdfTextMat dtransform
  6 5 roll Tj1
} def
/Tj16V {
  fCol
  2 index stringwidth pdfTextMat idtransform exch pop
  sub exch div
  0 pdfWordSpacing pdfTextMat dtransform 32
  4 3 roll pdfCharSpacing add 0 exch
  pdfTextMat dtransform
  6 5 roll Tj1
} def
/Tj1 {
  0 pdfTextRise pdfTextMat dtransform rmoveto
  currentpoint 8 2 roll
  pdfTextRender 1 and 0 eq pdfPatternCS not and {
    6 copy awidthshow
  } if
  pdfTextRender 3 and dup 1 eq exch 2 eq or {
    7 index 7 index moveto
    6 copy
    currentfont /FontType get 3 eq { fCol } { sCol } ifelse
    false awcp currentpoint stroke moveto
  } if
  pdfTextRender 4 and 0 ne pdfPatternCS or {
    8 6 roll moveto
    false awcp
    /pdfTextClipPath [ pdfTextClipPath aload pop
      {/moveto cvx}
      {/lineto cvx}
      {/curveto cvx}
      {/closepath cvx}
    pathforall ] def
    currentpoint newpath moveto
  } {
    8 {pop} repeat
  } ifelse
  0 pdfTextRise neg pdfTextMat dtransform rmoveto
} def
/TJm { pdfFontSize 0.001 mul mul neg 0
       pdfTextMat dtransform rmoveto } def
/TJmV { pdfFontSize 0.001 mul mul neg 0 exch
        pdfTextMat dtransform rmoveto } def
/Tclip { pdfTextClipPath cvx exec clip newpath
         /pdfTextClipPath [] def } def
/Tclip* { pdfTextClipPath cvx exec eoclip newpath
         /pdfTextClipPath [] def } def
% Level 2 image operators
/pdfImBuf 100 string def
/pdfIm {
  image
  { currentfile pdfImBuf readline
    not { pop exit } if
    (%-EOD-) eq { exit } if } loop
} def
/pdfImM {
  fCol imagemask
  { currentfile pdfImBuf readline
    not { pop exit } if
    (%-EOD-) eq { exit } if } loop
} def
/pr { 2 index 2 index 3 2 roll putinterval 4 add } def
/pdfImClip {
  gsave
  0 2 4 index length 1 sub {
    dup 4 index exch 2 copy
    get 5 index div put
    1 add 3 index exch 2 copy
    get 3 index div put
  } for
  pop pop rectclip
} def
/pdfImClipEnd { grestore } def
% shading operators
/colordelta {
  false 0 1 3 index length 1 sub {
    dup 4 index exch get 3 index 3 2 roll get sub abs 0.004 gt {
      pop true
    } if
  } for
  exch pop exch pop
} def
/funcCol { func n array astore } def
/funcSH {
  dup 0 eq {
    true
  } {
    dup 6 eq {
      false
    } {
      4 index 4 index funcCol dup
      6 index 4 index funcCol dup
      3 1 roll colordelta 3 1 roll
      5 index 5 index funcCol dup
      3 1 roll colordelta 3 1 roll
      6 index 8 index funcCol dup
      3 1 roll colordelta 3 1 roll
      colordelta or or or
    } ifelse
  } ifelse
  {
    1 add
    4 index 3 index add 0.5 mul exch 4 index 3 index add 0.5 mul exch
    6 index 6 index 4 index 4 index 4 index funcSH
    2 index 6 index 6 index 4 index 4 index funcSH
    6 index 2 index 4 index 6 index 4 index funcSH
    5 3 roll 3 2 roll funcSH pop pop
  } {
    pop 3 index 2 index add 0.5 mul 3 index  2 index add 0.5 mul
    funcCol sc
    dup 4 index exch mat transform m
    3 index 3 index mat transform l
    1 index 3 index mat transform l
    mat transform l pop pop h f*
  } ifelse
} def
/axialCol {
  dup 0 lt {
    pop t0
  } {
    dup 1 gt {
      pop t1
    } {
      dt mul t0 add
    } ifelse
  } ifelse
  func n array astore
} def
/axialSH {
  dup 0 eq {
    true
  } {
    dup 8 eq {
      false
    } {
      2 index axialCol 2 index axialCol colordelta
    } ifelse
  } ifelse
  {
    1 add 3 1 roll 2 copy add 0.5 mul
    dup 4 3 roll exch 4 index axialSH
    exch 3 2 roll axialSH
  } {
    pop 2 copy add 0.5 mul
    axialCol sc
    exch dup dx mul x0 add exch dy mul y0 add
    3 2 roll dup dx mul x0 add exch dy mul y0 add
    dx abs dy abs ge {
      2 copy yMin sub dy mul dx div add yMin m
      yMax sub dy mul dx div add yMax l
      2 copy yMax sub dy mul dx div add yMax l
      yMin sub dy mul dx div add yMin l
      h f*
    } {
      exch 2 copy xMin sub dx mul dy div add xMin exch m
      xMax sub dx mul dy div add xMax exch l
      exch 2 copy xMax sub dx mul dy div add xMax exch l
      xMin sub dx mul dy div add xMin exch l
      h f*
    } ifelse
  } ifelse
} def
/radialCol {
  dup t0 lt {
    pop t0
  } {
    dup t1 gt {
      pop t1
    } if
  } ifelse
  func n array astore
} def
/radialSH {
  dup 0 eq {
    true
  } {
    dup 8 eq {
      false
    } {
      2 index dt mul t0 add radialCol
      2 index dt mul t0 add radialCol colordelta
    } ifelse
  } ifelse
  {
    1 add 3 1 roll 2 copy add 0.5 mul
    dup 4 3 roll exch 4 index radialSH
    exch 3 2 roll radialSH
  } {
    pop 2 copy add 0.5 mul dt mul t0 add
    radialCol sc
    encl {
      exch dup dx mul x0 add exch dup dy mul y0 add exch dr mul r0 add
      0 360 arc h
      dup dx mul x0 add exch dup dy mul y0 add exch dr mul r0 add
      360 0 arcn h f
    } {
      2 copy
      dup dx mul x0 add exch dup dy mul y0 add exch dr mul r0 add
      a1 a2 arcn
      dup dx mul x0 add exch dup dy mul y0 add exch dr mul r0 add
      a2 a1 arcn h
      dup dx mul x0 add exch dup dy mul y0 add exch dr mul r0 add
      a1 a2 arc
      dup dx mul x0 add exch dup dy mul y0 add exch dr mul r0 add
      a2 a1 arc h f
    } ifelse
  } ifelse
} def
end
%%EndResource
%%EndProlog
%%BeginSetup
xpdf begin
%%EndSetup
pdfStartPage
[] 0 d
1 i
0 j
0 J
10 M
1 w
/DeviceGray {} cs
[0] sc
/DeviceGray {} CS
[0] SC
false op
false OP
{} settransfer
q
[0.8 0 0 -0.8 0 26] cm
q
[1 0 0 1 0 0] cm
q
[1 0 0 1 -358.56797 -470.90766] cm
q
[0.872921 0 0 0.872921 -36.465341 461.35074] cm
q
/DeviceRGB {} cs
[1 1 1] sc
486.26599 30.10776 m
486.27154 38.788 479.2381 45.82929 470.55786 45.83487 c
461.87768 45.83936 454.83526 38.80701 454.83081 30.1268 c
454.83081 30.12009 454.83081 30.11447 454.83081 30.10776 c
454.82629 21.42642 461.85864 14.38513 470.53888 14.38068 c
479.22022 14.37506 486.26038 21.40854 486.26599 30.08875 c
486.26599 30.09433 486.26599 30.10104 486.26599 30.10776 c
h
f
Q
q
[1 0 0 1 -289.6157 99.0653] cm
q
/DeviceRGB {} cs
[0 0 0] sc
772.94055 -81.76028 m
776.42651 -78.27432 778.16943 -74.00637 778.16943 -68.95755 c
778.16943 -63.90873 776.45666 -59.68552 773.03112 -56.29016 c
769.39635 -52.71359 765.09936 -50.92587 760.1422 -50.92587 c
755.24449 -50.92587 751.02233 -52.69903 747.47594 -56.24542 c
743.93077 -59.79068 742.15758 -64.02841 742.15758 -68.95755 c
742.15758 -73.88666 743.93077 -78.1535 747.47594 -81.76028 c
750.93175 -85.24734 755.1538 -86.98922 760.1422 -86.98922 c
765.18994 -86.98923 769.45569 -85.24734 772.94055 -81.76028 c
h
749.82312 -79.41544 m
746.87634 -76.43961 745.40405 -72.95252 745.40405 -68.95307 c
745.40405 -64.95472 746.86181 -61.49787 749.77832 -58.58243 c
752.69373 -55.66593 756.16626 -54.20822 760.19482 -54.20822 c
764.22338 -54.20822 767.72497 -55.68045 770.7008 -58.6272 c
773.52673 -61.36249 774.94079 -64.80371 774.94079 -68.95307 c
774.94079 -73.07111 773.50439 -76.56602 770.63366 -79.43781 c
767.76305 -82.30848 764.28381 -83.74378 760.19482 -83.74378 c
756.10583 -83.74378 752.64905 -82.30063 749.82312 -79.41544 c
h
757.57812 -70.71283 m
757.12731 -71.69394 756.45263 -72.18509 755.55432 -72.18509 c
753.9646 -72.18509 753.17029 -71.11557 753.17029 -68.97656 c
753.17029 -66.83642 753.9646 -65.76693 755.55432 -65.76693 c
756.60376 -65.76693 757.35327 -66.28823 757.80298 -67.33202 c
760.00574 -66.15847 l
758.95642 -64.29354 757.38123 -63.36053 755.28028 -63.36053 c
753.66028 -63.36053 752.36256 -63.85723 751.38819 -64.84957 c
750.41151 -65.84298 749.92603 -67.2123 749.92603 -68.95754 c
749.92603 -70.67254 750.42725 -72.03515 751.43299 -73.04314 c
752.43873 -74.05111 753.68946 -74.55565 755.1908 -74.55565 c
757.41028 -74.55565 759.0011 -73.6808 759.96106 -71.93334 c
757.57812 -70.71283 l
h
767.94092 -70.71283 m
767.49011 -71.69394 766.82996 -72.18509 765.9585 -72.18509 c
764.33753 -72.18509 763.52637 -71.11557 763.52637 -68.97656 c
763.52637 -66.83642 764.33753 -65.76693 765.9585 -65.76693 c
767.00904 -65.76693 767.74512 -66.28823 768.16578 -67.33202 c
770.41773 -66.15847 l
769.36951 -64.29354 767.79664 -63.36053 765.70008 -63.36053 c
764.0824 -63.36053 762.78687 -63.85723 761.81361 -64.84957 c
760.84144 -65.84298 760.35487 -67.2123 760.35487 -68.95754 c
760.35487 -70.67254 760.84925 -72.03515 761.83717 -73.04314 c
762.82496 -74.05111 764.08241 -74.55565 765.61061 -74.55565 c
767.8268 -74.55565 769.41432 -73.6808 770.37196 -71.93334 c
767.94092 -70.71283 l
h
f
Q
Q
Q
Q
Q
Q
showpage
%%PageTrailer
pdfEndPage
%%Trailer
end
%%DocumentSuppliedResources:
%%EOF
