%!PS-Adobe-3.0 EPSF-3.0
%%Creator: www.inkscape.org
%%LanguageLevel: 2
%%DocumentSuppliedResources: (atend)
%%BoundingBox: 0 0 19 19
%%HiResBoundingBox: 0 0 18.669529 18.670321
%%DocumentSuppliedResources: (atend)
%%EndComments
%%BeginProlog
%%BeginResource: procset xpdf 3.00 0
%%Copyright: Copyright 1996-2004 Glyph & Cog, LLC
/xpdf 75 dict def xpdf begin
% PDF special state
/pdfDictSize 15 def
/pdfSetup {
  3 1 roll 2 array astore
  /setpagedevice where {
    pop 3 dict begin
      /PageSize exch def
      /ImagingBBox null def
      { /Duplex true def } if
    currentdict end setpagedevice
  } {
    pop pop
  } ifelse
} def
/pdfStartPage {
  pdfDictSize dict begin
  /pdfFillCS [] def
  /pdfFillXform {} def
  /pdfStrokeCS [] def
  /pdfStrokeXform {} def
  /pdfFill [0] def
  /pdfStroke [0] def
  /pdfFillOP false def
  /pdfStrokeOP false def
  /pdfLastFill false def
  /pdfLastStroke false def
  /pdfTextMat [1 0 0 1 0 0] def
  /pdfFontSize 0 def
  /pdfCharSpacing 0 def
  /pdfTextRender 0 def
  /pdfPatternCS false def
  /pdfTextRise 0 def
  /pdfWordSpacing 0 def
  /pdfHorizScaling 1 def
  /pdfTextClipPath [] def
} def
/pdfEndPage { end } def
% PDF color state
/cs { /pdfFillXform exch def dup /pdfFillCS exch def
      setcolorspace } def
/CS { /pdfStrokeXform exch def dup /pdfStrokeCS exch def
      setcolorspace } def
/sc { pdfLastFill not { pdfFillCS setcolorspace } if
      dup /pdfFill exch def aload pop pdfFillXform setcolor
     /pdfLastFill true def /pdfLastStroke false def } def
/SC { pdfLastStroke not { pdfStrokeCS setcolorspace } if
      dup /pdfStroke exch def aload pop pdfStrokeXform setcolor
     /pdfLastStroke true def /pdfLastFill false def } def
/op { /pdfFillOP exch def
      pdfLastFill { pdfFillOP setoverprint } if } def
/OP { /pdfStrokeOP exch def
      pdfLastStroke { pdfStrokeOP setoverprint } if } def
/fCol {
  pdfLastFill not {
    pdfFillCS setcolorspace
    pdfFill aload pop pdfFillXform setcolor
    pdfFillOP setoverprint
    /pdfLastFill true def /pdfLastStroke false def
  } if
} def
/sCol {
  pdfLastStroke not {
    pdfStrokeCS setcolorspace
    pdfStroke aload pop pdfStrokeXform setcolor
    pdfStrokeOP setoverprint
    /pdfLastStroke true def /pdfLastFill false def
  } if
} def
% build a font
/pdfMakeFont {
  4 3 roll findfont
  4 2 roll matrix scale makefont
  dup length dict begin
    { 1 index /FID ne { def } { pop pop } ifelse } forall
    /Encoding exch def
    currentdict
  end
  definefont pop
} def
/pdfMakeFont16 {
  exch findfont
  dup length dict begin
    { 1 index /FID ne { def } { pop pop } ifelse } forall
    /WMode exch def
    currentdict
  end
  definefont pop
} def
% graphics state operators
/q { gsave pdfDictSize dict begin } def
/Q {
  end grestore
  /pdfLastFill where {
    pop
    pdfLastFill {
      pdfFillOP setoverprint
    } {
      pdfStrokeOP setoverprint
    } ifelse
  } if
} def
/cm { concat } def
/d { setdash } def
/i { setflat } def
/j { setlinejoin } def
/J { setlinecap } def
/M { setmiterlimit } def
/w { setlinewidth } def
% path segment operators
/m { moveto } def
/l { lineto } def
/c { curveto } def
/re { 4 2 roll moveto 1 index 0 rlineto 0 exch rlineto
      neg 0 rlineto closepath } def
/h { closepath } def
% path painting operators
/S { sCol stroke } def
/Sf { fCol stroke } def
/f { fCol fill } def
/f* { fCol eofill } def
% clipping operators
/W { clip newpath } def
/W* { eoclip newpath } def
/Ws { strokepath clip newpath } def
% text state operators
/Tc { /pdfCharSpacing exch def } def
/Tf { dup /pdfFontSize exch def
      dup pdfHorizScaling mul exch matrix scale
      pdfTextMat matrix concatmatrix dup 4 0 put dup 5 0 put
      exch findfont exch makefont setfont } def
/Tr { /pdfTextRender exch def } def
/Tp { /pdfPatternCS exch def } def
/Ts { /pdfTextRise exch def } def
/Tw { /pdfWordSpacing exch def } def
/Tz { /pdfHorizScaling exch def } def
% text positioning operators
/Td { pdfTextMat transform moveto } def
/Tm { /pdfTextMat exch def } def
% text string operators
/cshow where {
  pop
  /cshow2 {
    dup {
      pop pop
      1 string dup 0 3 index put 3 index exec
    } exch cshow
    pop pop
  } def
}{
  /cshow2 {
    currentfont /FontType get 0 eq {
      0 2 2 index length 1 sub {
        2 copy get exch 1 add 2 index exch get
        2 copy exch 256 mul add
        2 string dup 0 6 5 roll put dup 1 5 4 roll put
        3 index exec
      } for
    } {
      dup {
        1 string dup 0 3 index put 3 index exec
      } forall
    } ifelse
    pop pop
  } def
} ifelse
/awcp {
  exch {
    false charpath
    5 index 5 index rmoveto
    6 index eq { 7 index 7 index rmoveto } if
  } exch cshow2
  6 {pop} repeat
} def
/Tj {
  fCol
  1 index stringwidth pdfTextMat idtransform pop
  sub 1 index length dup 0 ne { div } { pop pop 0 } ifelse
  pdfWordSpacing pdfHorizScaling mul 0 pdfTextMat dtransform 32
  4 3 roll pdfCharSpacing pdfHorizScaling mul add 0
  pdfTextMat dtransform
  6 5 roll Tj1
} def
/Tj16 {
  fCol
  2 index stringwidth pdfTextMat idtransform pop
  sub exch div
  pdfWordSpacing pdfHorizScaling mul 0 pdfTextMat dtransform 32
  4 3 roll pdfCharSpacing pdfHorizScaling mul add 0
  pdfTextMat dtransform
  6 5 roll Tj1
} def
/Tj16V {
  fCol
  2 index stringwidth pdfTextMat idtransform exch pop
  sub exch div
  0 pdfWordSpacing pdfTextMat dtransform 32
  4 3 roll pdfCharSpacing add 0 exch
  pdfTextMat dtransform
  6 5 roll Tj1
} def
/Tj1 {
  0 pdfTextRise pdfTextMat dtransform rmoveto
  currentpoint 8 2 roll
  pdfTextRender 1 and 0 eq pdfPatternCS not and {
    6 copy awidthshow
  } if
  pdfTextRender 3 and dup 1 eq exch 2 eq or {
    7 index 7 index moveto
    6 copy
    currentfont /FontType get 3 eq { fCol } { sCol } ifelse
    false awcp currentpoint stroke moveto
  } if
  pdfTextRender 4 and 0 ne pdfPatternCS or {
    8 6 roll moveto
    false awcp
    /pdfTextClipPath [ pdfTextClipPath aload pop
      {/moveto cvx}
      {/lineto cvx}
      {/curveto cvx}
      {/closepath cvx}
    pathforall ] def
    currentpoint newpath moveto
  } {
    8 {pop} repeat
  } ifelse
  0 pdfTextRise neg pdfTextMat dtransform rmoveto
} def
/TJm { pdfFontSize 0.001 mul mul neg 0
       pdfTextMat dtransform rmoveto } def
/TJmV { pdfFontSize 0.001 mul mul neg 0 exch
        pdfTextMat dtransform rmoveto } def
/Tclip { pdfTextClipPath cvx exec clip newpath
         /pdfTextClipPath [] def } def
/Tclip* { pdfTextClipPath cvx exec eoclip newpath
         /pdfTextClipPath [] def } def
% Level 2 image operators
/pdfImBuf 100 string def
/pdfIm {
  image
  { currentfile pdfImBuf readline
    not { pop exit } if
    (%-EOD-) eq { exit } if } loop
} def
/pdfImM {
  fCol imagemask
  { currentfile pdfImBuf readline
    not { pop exit } if
    (%-EOD-) eq { exit } if } loop
} def
/pr { 2 index 2 index 3 2 roll putinterval 4 add } def
/pdfImClip {
  gsave
  0 2 4 index length 1 sub {
    dup 4 index exch 2 copy
    get 5 index div put
    1 add 3 index exch 2 copy
    get 3 index div put
  } for
  pop pop rectclip
} def
/pdfImClipEnd { grestore } def
% shading operators
/colordelta {
  false 0 1 3 index length 1 sub {
    dup 4 index exch get 3 index 3 2 roll get sub abs 0.004 gt {
      pop true
    } if
  } for
  exch pop exch pop
} def
/funcCol { func n array astore } def
/funcSH {
  dup 0 eq {
    true
  } {
    dup 6 eq {
      false
    } {
      4 index 4 index funcCol dup
      6 index 4 index funcCol dup
      3 1 roll colordelta 3 1 roll
      5 index 5 index funcCol dup
      3 1 roll colordelta 3 1 roll
      6 index 8 index funcCol dup
      3 1 roll colordelta 3 1 roll
      colordelta or or or
    } ifelse
  } ifelse
  {
    1 add
    4 index 3 index add 0.5 mul exch 4 index 3 index add 0.5 mul exch
    6 index 6 index 4 index 4 index 4 index funcSH
    2 index 6 index 6 index 4 index 4 index funcSH
    6 index 2 index 4 index 6 index 4 index funcSH
    5 3 roll 3 2 roll funcSH pop pop
  } {
    pop 3 index 2 index add 0.5 mul 3 index  2 index add 0.5 mul
    funcCol sc
    dup 4 index exch mat transform m
    3 index 3 index mat transform l
    1 index 3 index mat transform l
    mat transform l pop pop h f*
  } ifelse
} def
/axialCol {
  dup 0 lt {
    pop t0
  } {
    dup 1 gt {
      pop t1
    } {
      dt mul t0 add
    } ifelse
  } ifelse
  func n array astore
} def
/axialSH {
  dup 0 eq {
    true
  } {
    dup 8 eq {
      false
    } {
      2 index axialCol 2 index axialCol colordelta
    } ifelse
  } ifelse
  {
    1 add 3 1 roll 2 copy add 0.5 mul
    dup 4 3 roll exch 4 index axialSH
    exch 3 2 roll axialSH
  } {
    pop 2 copy add 0.5 mul
    axialCol sc
    exch dup dx mul x0 add exch dy mul y0 add
    3 2 roll dup dx mul x0 add exch dy mul y0 add
    dx abs dy abs ge {
      2 copy yMin sub dy mul dx div add yMin m
      yMax sub dy mul dx div add yMax l
      2 copy yMax sub dy mul dx div add yMax l
      yMin sub dy mul dx div add yMin l
      h f*
    } {
      exch 2 copy xMin sub dx mul dy div add xMin exch m
      xMax sub dx mul dy div add xMax exch l
      exch 2 copy xMax sub dx mul dy div add xMax exch l
      xMin sub dx mul dy div add xMin exch l
      h f*
    } ifelse
  } ifelse
} def
/radialCol {
  dup t0 lt {
    pop t0
  } {
    dup t1 gt {
      pop t1
    } if
  } ifelse
  func n array astore
} def
/radialSH {
  dup 0 eq {
    true
  } {
    dup 8 eq {
      false
    } {
      2 index dt mul t0 add radialCol
      2 index dt mul t0 add radialCol colordelta
    } ifelse
  } ifelse
  {
    1 add 3 1 roll 2 copy add 0.5 mul
    dup 4 3 roll exch 4 index radialSH
    exch 3 2 roll radialSH
  } {
    pop 2 copy add 0.5 mul dt mul t0 add
    radialCol sc
    encl {
      exch dup dx mul x0 add exch dup dy mul y0 add exch dr mul r0 add
      0 360 arc h
      dup dx mul x0 add exch dup dy mul y0 add exch dr mul r0 add
      360 0 arcn h f
    } {
      2 copy
      dup dx mul x0 add exch dup dy mul y0 add exch dr mul r0 add
      a1 a2 arcn
      dup dx mul x0 add exch dup dy mul y0 add exch dr mul r0 add
      a2 a1 arcn h
      dup dx mul x0 add exch dup dy mul y0 add exch dr mul r0 add
      a1 a2 arc
      dup dx mul x0 add exch dup dy mul y0 add exch dr mul r0 add
      a2 a1 arc h f
    } ifelse
  } ifelse
} def
end
%%EndResource
%%EndProlog
%%BeginSetup
xpdf begin
%%EndSetup
pdfStartPage
[] 0 d
1 i
0 j
0 J
10 M
1 w
/DeviceGray {} cs
[0] sc
/DeviceGray {} CS
[0] SC
false op
false OP
{} settransfer
q
[0.8 0 0 -0.8 0 19] cm
q
[1 0 0 1 0 0] cm
q
[1 0 0 1 -368.33154 -466.40752] cm
q
/DeviceRGB {} cs
[0 0 0] sc
388.28076 470.18929 m
386.02099 467.93343 383.25635 466.80452 379.98486 466.80452 c
376.75244 466.80452 374.01709 467.93343 371.77783 470.18929 c
369.47998 472.52327 368.33154 475.28499 368.33154 478.47445 c
368.33154 481.66391 369.47998 484.40609 371.77783 486.70101 c
374.07471 488.99593 376.81103 490.14242 379.98486 490.14242 c
383.19775 490.14242 385.98291 488.98617 388.33935 486.67172 c
390.5581 484.47445 391.66845 481.74203 391.66845 478.47445 c
391.66845 475.20687 390.53955 472.44515 388.28076 470.18929 c
h
373.29638 471.70687 m
375.12743 469.83968 377.36572 468.90609 380.01415 468.90609 c
382.66258 468.90609 384.91161 469.83968 386.7622 471.70687 c
388.63036 473.55453 389.56493 475.81039 389.56493 478.47445 c
389.56493 478.60531 389.55223 478.72933 389.54833 478.85824 c
386.39208 478.85824 l
386.1831 478.85824 385.99462 478.98422 385.91552 479.17758 c
385.91552 479.17758 385.65575 479.80258 385.41747 480.37778 c
385.14696 478.10923 384.67528 474.14731 384.67528 474.14731 c
384.64403 473.88461 384.41844 473.68735 384.15282 473.69223 c
383.88817 473.69711 383.66942 473.90219 383.64794 474.16684 c
383.64794 474.16684 383.42626 476.85825 383.20849 479.49692 c
382.96728 476.3104 382.72607 473.1229 382.72607 473.1229 c
382.70556 472.85435 382.48193 472.64634 382.2124 472.64536 c
382.21142 472.64536 382.21142 472.64536 382.21142 472.64536 c
381.94189 472.64536 381.71728 472.85337 381.69677 473.12192 c
381.69677 473.12192 381.48779 475.80551 381.29052 478.34165 c
381.03466 474.26743 380.77685 470.1688 380.77685 470.1688 c
380.75927 469.89634 380.53369 469.68442 380.26025 469.68442 c
379.98779 469.6854 379.7622 469.89731 379.7456 470.16977 c
379.7456 470.16977 379.50732 474.09067 379.26806 478.00864 c
379.04931 474.64048 378.82665 471.21469 378.82665 471.21469 c
378.80907 470.94321 378.58349 470.73129 378.31103 470.73129 c
378.03857 470.73129 377.81396 470.94223 377.79541 471.21371 c
377.79541 471.21371 377.55322 474.89926 377.31006 478.58383 c
377.09522 475.62875 376.87451 472.60336 376.87451 472.60336 c
376.85498 472.33481 376.63232 472.12582 376.36279 472.12387 c
376.09424 472.12192 375.86865 472.32797 375.84521 472.59653 c
375.84521 472.59653 375.53369 476.21469 375.25048 479.49985 c
375.10204 478.49106 374.91943 477.24887 374.91943 477.24887 c
374.88623 477.02426 374.71045 476.8475 374.48486 476.81332 c
374.26025 476.78012 374.03955 476.8973 373.94189 477.10238 c
373.94189 477.10238 373.31298 478.4266 373.10791 478.85824 c
370.45166 478.85824 l
370.44678 478.73031 370.43408 478.60433 370.43408 478.47445 c
370.43408 475.88851 371.38818 473.6307 373.29638 471.70687 c
h
386.81982 485.15414 m
384.89209 487.06039 382.62353 488.01352 380.01416 488.01352 c
377.40479 488.01352 375.15576 487.07016 373.26709 485.18344 c
371.73389 483.65121 370.8335 481.88461 370.54541 479.89145 c
373.43408 479.89145 l
373.6333 479.89145 373.81494 479.77622 373.90088 479.59653 c
373.90088 479.59653 374.05322 479.27524 374.14502 479.08188 c
374.42041 480.95688 374.87354 484.03598 374.87354 484.03598 c
374.91163 484.29477 375.13819 484.4852 375.39991 484.47739 c
375.66163 484.4686 375.87647 484.26645 375.89893 484.00473 c
375.89893 484.00473 376.11182 481.53207 376.31592 479.15903 c
376.56787 482.61997 376.8208 486.08774 376.8208 486.08774 c
376.84033 486.35825 377.06592 486.56821 377.3374 486.56723 c
377.60888 486.56625 377.83252 486.35532 377.85107 486.08481 c
377.85107 486.08481 378.08056 482.60336 378.3081 479.14926 c
378.53857 482.69516 378.77001 486.25766 378.77001 486.25766 c
378.78759 486.53012 379.01415 486.74106 379.28661 486.74106 c
379.55907 486.74008 379.78466 486.52817 379.80126 486.25571 c
379.80126 486.25571 380.03564 482.40122 380.27001 478.55844 c
380.49462 482.1268 380.72118 485.7352 380.72118 485.7352 c
380.73876 486.00571 380.96239 486.21762 381.2329 486.21958 c
381.50438 486.22153 381.73095 486.01353 381.75145 485.74302 c
381.75145 485.74302 381.97899 482.81431 382.20457 479.91392 c
382.43797 482.99693 382.67234 486.0897 382.67234 486.0897 c
382.69285 486.35825 382.9155 486.56626 383.18504 486.56724 c
383.18602 486.56724 383.18602 486.56724 383.18699 486.56724 c
383.45554 486.56724 383.67918 486.36119 383.70164 486.09263 c
383.70164 486.09263 383.98387 482.66392 384.25633 479.36118 c
384.43016 480.82016 384.62547 482.46177 384.62547 482.46177 c
384.65281 482.69419 384.83445 482.87974 385.06785 482.91197 c
385.30027 482.9442 385.52488 482.81529 385.61473 482.59752 c
385.61473 482.59752 386.52586 480.40123 386.7368 479.89147 c
389.46336 479.89147 l
389.19091 481.94906 388.31689 483.70687 386.81982 485.15414 c
h
f
Q
Q
Q
Q
showpage
%%PageTrailer
pdfEndPage
%%Trailer
end
%%DocumentSuppliedResources:
%%EOF
