%!PS-Adobe-3.0 EPSF-3.0
%%Creator: www.inkscape.org
%%LanguageLevel: 2
%%DocumentSuppliedResources: (atend)
%%BoundingBox: 0 0 19 19
%%HiResBoundingBox: 0 0 18.670321 18.670313
%%DocumentSuppliedResources: (atend)
%%EndComments
%%BeginProlog
%%BeginResource: procset xpdf 3.00 0
%%Copyright: Copyright 1996-2004 Glyph & Cog, LLC
/xpdf 75 dict def xpdf begin
% PDF special state
/pdfDictSize 15 def
/pdfSetup {
  3 1 roll 2 array astore
  /setpagedevice where {
    pop 3 dict begin
      /PageSize exch def
      /ImagingBBox null def
      { /Duplex true def } if
    currentdict end setpagedevice
  } {
    pop pop
  } ifelse
} def
/pdfStartPage {
  pdfDictSize dict begin
  /pdfFillCS [] def
  /pdfFillXform {} def
  /pdfStrokeCS [] def
  /pdfStrokeXform {} def
  /pdfFill [0] def
  /pdfStroke [0] def
  /pdfFillOP false def
  /pdfStrokeOP false def
  /pdfLastFill false def
  /pdfLastStroke false def
  /pdfTextMat [1 0 0 1 0 0] def
  /pdfFontSize 0 def
  /pdfCharSpacing 0 def
  /pdfTextRender 0 def
  /pdfPatternCS false def
  /pdfTextRise 0 def
  /pdfWordSpacing 0 def
  /pdfHorizScaling 1 def
  /pdfTextClipPath [] def
} def
/pdfEndPage { end } def
% PDF color state
/cs { /pdfFillXform exch def dup /pdfFillCS exch def
      setcolorspace } def
/CS { /pdfStrokeXform exch def dup /pdfStrokeCS exch def
      setcolorspace } def
/sc { pdfLastFill not { pdfFillCS setcolorspace } if
      dup /pdfFill exch def aload pop pdfFillXform setcolor
     /pdfLastFill true def /pdfLastStroke false def } def
/SC { pdfLastStroke not { pdfStrokeCS setcolorspace } if
      dup /pdfStroke exch def aload pop pdfStrokeXform setcolor
     /pdfLastStroke true def /pdfLastFill false def } def
/op { /pdfFillOP exch def
      pdfLastFill { pdfFillOP setoverprint } if } def
/OP { /pdfStrokeOP exch def
      pdfLastStroke { pdfStrokeOP setoverprint } if } def
/fCol {
  pdfLastFill not {
    pdfFillCS setcolorspace
    pdfFill aload pop pdfFillXform setcolor
    pdfFillOP setoverprint
    /pdfLastFill true def /pdfLastStroke false def
  } if
} def
/sCol {
  pdfLastStroke not {
    pdfStrokeCS setcolorspace
    pdfStroke aload pop pdfStrokeXform setcolor
    pdfStrokeOP setoverprint
    /pdfLastStroke true def /pdfLastFill false def
  } if
} def
% build a font
/pdfMakeFont {
  4 3 roll findfont
  4 2 roll matrix scale makefont
  dup length dict begin
    { 1 index /FID ne { def } { pop pop } ifelse } forall
    /Encoding exch def
    currentdict
  end
  definefont pop
} def
/pdfMakeFont16 {
  exch findfont
  dup length dict begin
    { 1 index /FID ne { def } { pop pop } ifelse } forall
    /WMode exch def
    currentdict
  end
  definefont pop
} def
% graphics state operators
/q { gsave pdfDictSize dict begin } def
/Q {
  end grestore
  /pdfLastFill where {
    pop
    pdfLastFill {
      pdfFillOP setoverprint
    } {
      pdfStrokeOP setoverprint
    } ifelse
  } if
} def
/cm { concat } def
/d { setdash } def
/i { setflat } def
/j { setlinejoin } def
/J { setlinecap } def
/M { setmiterlimit } def
/w { setlinewidth } def
% path segment operators
/m { moveto } def
/l { lineto } def
/c { curveto } def
/re { 4 2 roll moveto 1 index 0 rlineto 0 exch rlineto
      neg 0 rlineto closepath } def
/h { closepath } def
% path painting operators
/S { sCol stroke } def
/Sf { fCol stroke } def
/f { fCol fill } def
/f* { fCol eofill } def
% clipping operators
/W { clip newpath } def
/W* { eoclip newpath } def
/Ws { strokepath clip newpath } def
% text state operators
/Tc { /pdfCharSpacing exch def } def
/Tf { dup /pdfFontSize exch def
      dup pdfHorizScaling mul exch matrix scale
      pdfTextMat matrix concatmatrix dup 4 0 put dup 5 0 put
      exch findfont exch makefont setfont } def
/Tr { /pdfTextRender exch def } def
/Tp { /pdfPatternCS exch def } def
/Ts { /pdfTextRise exch def } def
/Tw { /pdfWordSpacing exch def } def
/Tz { /pdfHorizScaling exch def } def
% text positioning operators
/Td { pdfTextMat transform moveto } def
/Tm { /pdfTextMat exch def } def
% text string operators
/cshow where {
  pop
  /cshow2 {
    dup {
      pop pop
      1 string dup 0 3 index put 3 index exec
    } exch cshow
    pop pop
  } def
}{
  /cshow2 {
    currentfont /FontType get 0 eq {
      0 2 2 index length 1 sub {
        2 copy get exch 1 add 2 index exch get
        2 copy exch 256 mul add
        2 string dup 0 6 5 roll put dup 1 5 4 roll put
        3 index exec
      } for
    } {
      dup {
        1 string dup 0 3 index put 3 index exec
      } forall
    } ifelse
    pop pop
  } def
} ifelse
/awcp {
  exch {
    false charpath
    5 index 5 index rmoveto
    6 index eq { 7 index 7 index rmoveto } if
  } exch cshow2
  6 {pop} repeat
} def
/Tj {
  fCol
  1 index stringwidth pdfTextMat idtransform pop
  sub 1 index length dup 0 ne { div } { pop pop 0 } ifelse
  pdfWordSpacing pdfHorizScaling mul 0 pdfTextMat dtransform 32
  4 3 roll pdfCharSpacing pdfHorizScaling mul add 0
  pdfTextMat dtransform
  6 5 roll Tj1
} def
/Tj16 {
  fCol
  2 index stringwidth pdfTextMat idtransform pop
  sub exch div
  pdfWordSpacing pdfHorizScaling mul 0 pdfTextMat dtransform 32
  4 3 roll pdfCharSpacing pdfHorizScaling mul add 0
  pdfTextMat dtransform
  6 5 roll Tj1
} def
/Tj16V {
  fCol
  2 index stringwidth pdfTextMat idtransform exch pop
  sub exch div
  0 pdfWordSpacing pdfTextMat dtransform 32
  4 3 roll pdfCharSpacing add 0 exch
  pdfTextMat dtransform
  6 5 roll Tj1
} def
/Tj1 {
  0 pdfTextRise pdfTextMat dtransform rmoveto
  currentpoint 8 2 roll
  pdfTextRender 1 and 0 eq pdfPatternCS not and {
    6 copy awidthshow
  } if
  pdfTextRender 3 and dup 1 eq exch 2 eq or {
    7 index 7 index moveto
    6 copy
    currentfont /FontType get 3 eq { fCol } { sCol } ifelse
    false awcp currentpoint stroke moveto
  } if
  pdfTextRender 4 and 0 ne pdfPatternCS or {
    8 6 roll moveto
    false awcp
    /pdfTextClipPath [ pdfTextClipPath aload pop
      {/moveto cvx}
      {/lineto cvx}
      {/curveto cvx}
      {/closepath cvx}
    pathforall ] def
    currentpoint newpath moveto
  } {
    8 {pop} repeat
  } ifelse
  0 pdfTextRise neg pdfTextMat dtransform rmoveto
} def
/TJm { pdfFontSize 0.001 mul mul neg 0
       pdfTextMat dtransform rmoveto } def
/TJmV { pdfFontSize 0.001 mul mul neg 0 exch
        pdfTextMat dtransform rmoveto } def
/Tclip { pdfTextClipPath cvx exec clip newpath
         /pdfTextClipPath [] def } def
/Tclip* { pdfTextClipPath cvx exec eoclip newpath
         /pdfTextClipPath [] def } def
% Level 2 image operators
/pdfImBuf 100 string def
/pdfIm {
  image
  { currentfile pdfImBuf readline
    not { pop exit } if
    (%-EOD-) eq { exit } if } loop
} def
/pdfImM {
  fCol imagemask
  { currentfile pdfImBuf readline
    not { pop exit } if
    (%-EOD-) eq { exit } if } loop
} def
/pr { 2 index 2 index 3 2 roll putinterval 4 add } def
/pdfImClip {
  gsave
  0 2 4 index length 1 sub {
    dup 4 index exch 2 copy
    get 5 index div put
    1 add 3 index exch 2 copy
    get 3 index div put
  } for
  pop pop rectclip
} def
/pdfImClipEnd { grestore } def
% shading operators
/colordelta {
  false 0 1 3 index length 1 sub {
    dup 4 index exch get 3 index 3 2 roll get sub abs 0.004 gt {
      pop true
    } if
  } for
  exch pop exch pop
} def
/funcCol { func n array astore } def
/funcSH {
  dup 0 eq {
    true
  } {
    dup 6 eq {
      false
    } {
      4 index 4 index funcCol dup
      6 index 4 index funcCol dup
      3 1 roll colordelta 3 1 roll
      5 index 5 index funcCol dup
      3 1 roll colordelta 3 1 roll
      6 index 8 index funcCol dup
      3 1 roll colordelta 3 1 roll
      colordelta or or or
    } ifelse
  } ifelse
  {
    1 add
    4 index 3 index add 0.5 mul exch 4 index 3 index add 0.5 mul exch
    6 index 6 index 4 index 4 index 4 index funcSH
    2 index 6 index 6 index 4 index 4 index funcSH
    6 index 2 index 4 index 6 index 4 index funcSH
    5 3 roll 3 2 roll funcSH pop pop
  } {
    pop 3 index 2 index add 0.5 mul 3 index  2 index add 0.5 mul
    funcCol sc
    dup 4 index exch mat transform m
    3 index 3 index mat transform l
    1 index 3 index mat transform l
    mat transform l pop pop h f*
  } ifelse
} def
/axialCol {
  dup 0 lt {
    pop t0
  } {
    dup 1 gt {
      pop t1
    } {
      dt mul t0 add
    } ifelse
  } ifelse
  func n array astore
} def
/axialSH {
  dup 0 eq {
    true
  } {
    dup 8 eq {
      false
    } {
      2 index axialCol 2 index axialCol colordelta
    } ifelse
  } ifelse
  {
    1 add 3 1 roll 2 copy add 0.5 mul
    dup 4 3 roll exch 4 index axialSH
    exch 3 2 roll axialSH
  } {
    pop 2 copy add 0.5 mul
    axialCol sc
    exch dup dx mul x0 add exch dy mul y0 add
    3 2 roll dup dx mul x0 add exch dy mul y0 add
    dx abs dy abs ge {
      2 copy yMin sub dy mul dx div add yMin m
      yMax sub dy mul dx div add yMax l
      2 copy yMax sub dy mul dx div add yMax l
      yMin sub dy mul dx div add yMin l
      h f*
    } {
      exch 2 copy xMin sub dx mul dy div add xMin exch m
      xMax sub dx mul dy div add xMax exch l
      exch 2 copy xMax sub dx mul dy div add xMax exch l
      xMin sub dx mul dy div add xMin exch l
      h f*
    } ifelse
  } ifelse
} def
/radialCol {
  dup t0 lt {
    pop t0
  } {
    dup t1 gt {
      pop t1
    } if
  } ifelse
  func n array astore
} def
/radialSH {
  dup 0 eq {
    true
  } {
    dup 8 eq {
      false
    } {
      2 index dt mul t0 add radialCol
      2 index dt mul t0 add radialCol colordelta
    } ifelse
  } ifelse
  {
    1 add 3 1 roll 2 copy add 0.5 mul
    dup 4 3 roll exch 4 index radialSH
    exch 3 2 roll radialSH
  } {
    pop 2 copy add 0.5 mul dt mul t0 add
    radialCol sc
    encl {
      exch dup dx mul x0 add exch dup dy mul y0 add exch dr mul r0 add
      0 360 arc h
      dup dx mul x0 add exch dup dy mul y0 add exch dr mul r0 add
      360 0 arcn h f
    } {
      2 copy
      dup dx mul x0 add exch dup dy mul y0 add exch dr mul r0 add
      a1 a2 arcn
      dup dx mul x0 add exch dup dy mul y0 add exch dr mul r0 add
      a2 a1 arcn h
      dup dx mul x0 add exch dup dy mul y0 add exch dr mul r0 add
      a1 a2 arc
      dup dx mul x0 add exch dup dy mul y0 add exch dr mul r0 add
      a2 a1 arc h f
    } ifelse
  } ifelse
} def
end
%%EndResource
%%EndProlog
%%BeginSetup
xpdf begin
%%EndSetup
pdfStartPage
[] 0 d
1 i
0 j
0 J
10 M
1 w
/DeviceGray {} cs
[0] sc
/DeviceGray {} CS
[0] SC
false op
false OP
{} settransfer
q
[0.8 0 0 -0.8 0 19] cm
q
[1 0 0 1 0 0] cm
q
[1 0 0 1 -376.90248 -440.69324] cm
q
[1 0 0 1 -128.21715 287.86075] cm
q
/DeviceRGB {} cs
[1 1 1] sc
526.89404 164.89844 m
526.89697 159.31739 522.37646 154.79004 516.79541 154.78614 c
511.21338 154.78321 506.68799 159.30469 506.68311 164.88477 c
506.68311 164.88965 506.68311 164.89356 506.68311 164.89844 c
506.6792 170.47852 511.20166 175.00586 516.78174 175.00977 c
522.36279 175.0127 526.89014 170.49219 526.89404 164.91114 c
526.89404 164.90625 526.89404 164.90332 526.89404 164.89844 c
h
f
Q
q
/DeviceRGB {} cs
[0 0 0] sc
513.60986 172.51318 m
513.62939 172.78369 513.85498 172.99267 514.12646 172.99218 c
514.39794 172.9912 514.62158 172.78027 514.64013 172.50927 c
514.64013 172.50927 514.83544 169.53466 515.04443 166.35839 c
513.16162 166.35839 l
513.39307 169.54346 513.60986 172.51318 513.60986 172.51318 c
h
517.73291 164.65137 m
518.07178 164.65137 l
517.81787 160.61426 517.56494 156.59278 517.56494 156.59278 c
517.54736 156.32032 517.32178 156.1084 517.04834 156.10889 c
516.77588 156.10889 516.55029 156.32129 516.53369 156.59375 c
516.53369 156.59375 516.42139 158.43994 516.27392 160.86426 c
517.7329 160.86426 l
517.7329 164.65137 l
517.73291 164.65137 l
h
516.01221 163.76367 m
515.80811 160.625 515.61377 157.63818 515.61377 157.63818 c
515.59619 157.3667 515.37061 157.15576 515.09815 157.15576 c
514.82569 157.15576 514.60108 157.3667 514.58253 157.63818 c
514.58253 157.63818 514.35499 161.09033 514.12159 164.65136 c
516.01221 164.65136 l
516.01221 163.76367 l
516.01221 163.76367 l
h
516.01221 166.3584 m
515.146 166.3584 l
515.35987 169.62549 515.55811 172.68311 515.55811 172.68311 c
515.57666 172.95508 515.80225 173.16651 516.07471 173.16602 c
516.34717 173.16504 516.57276 172.95264 516.58936 172.68067 c
516.58936 172.68067 516.65186 171.65821 516.74366 170.14649 c
516.01221 170.14649 l
516.01221 166.3584 l
h
525.06885 156.61328 m
522.81006 154.35742 520.04541 153.22949 516.77393 153.22949 c
513.54151 153.22949 510.80616 154.35742 508.5669 156.61328 c
506.26807 158.94629 505.11963 161.70898 505.11963 164.89844 c
505.11963 168.0879 506.26807 170.83008 508.5669 173.125 c
510.86378 175.41992 513.6001 176.56738 516.77393 176.56738 c
519.98584 176.56738 522.771 175.40918 525.12745 173.09668 c
527.34718 170.89844 528.45753 168.16504 528.45753 164.89844 c
528.45753 161.63184 527.32764 158.86914 525.06885 156.61328 c
h
521.50732 164.65137 m
521.50732 166.3584 l
521.11279 166.3584 l
521.26513 167.6416 521.41357 168.88526 521.41357 168.88526 c
521.44091 169.11866 521.62255 169.30372 521.85595 169.33594 c
522.08837 169.36768 522.31298 169.23877 522.40283 169.02198 c
522.40283 169.02198 523.31396 166.8252 523.5249 166.31544 c
526.25244 166.31544 l
525.979 168.37355 525.10498 170.13136 523.60889 171.57814 c
521.68018 173.48439 519.41162 174.43752 516.80323 174.43752 c
514.19385 174.43752 511.94385 173.49416 510.05616 171.60842 c
508.52198 170.07571 507.62159 168.3091 507.3335 166.31545 c
510.22217 166.31545 l
510.42139 166.31545 510.60303 166.2007 510.68799 166.02053 c
510.68799 166.02053 510.84131 165.69875 510.93408 165.50442 c
511.20947 167.37942 511.6626 170.46096 511.6626 170.46096 c
511.70069 170.72024 511.92725 170.90969 512.18897 170.90188 c
512.45069 170.89407 512.66553 170.69143 512.68799 170.4302 c
512.68799 170.4302 512.85694 168.46536 513.03858 166.35842 c
512.23878 166.35842 l
512.23878 164.65139 l
514.07276 164.65139 l
513.86768 161.81594 513.66358 159.02688 513.66358 159.02688 c
513.64405 158.75833 513.42139 158.54983 513.15284 158.54836 c
512.88331 158.54641 512.65772 158.75197 512.63429 159.02004 c
512.63429 159.02004 512.32277 162.6382 512.03956 165.92385 c
511.89112 164.91457 511.70851 163.6719 511.70851 163.6719 c
511.67531 163.4468 511.49953 163.27004 511.27394 163.23635 c
511.04933 163.20266 510.82863 163.31985 510.73097 163.52541 c
510.73097 163.52541 510.10109 164.85012 509.89601 165.28225 c
507.23976 165.28225 l
507.23488 165.15383 507.22218 165.02883 507.22218 164.89846 c
507.22218 162.31155 508.17726 160.05569 510.08546 158.13088 c
511.91554 156.26272 514.1548 155.3301 516.80323 155.3301 c
519.45166 155.3301 521.69971 156.26272 523.5503 158.13088 c
525.41944 159.97756 526.35401 162.2344 526.35401 164.89846 c
526.35401 165.02932 526.34131 165.15383 526.33741 165.28225 c
523.18018 165.28225 l
522.9712 165.28225 522.78272 165.40823 522.70362 165.6011 c
522.70362 165.6011 522.44385 166.22708 522.20557 166.80178 c
521.93506 164.53274 521.46338 160.57082 521.46338 160.57082 c
521.43213 160.30764 521.20654 160.11086 520.94092 160.11574 c
520.67627 160.12062 520.45752 160.32521 520.43604 160.58937 c
520.43604 160.58937 520.27979 162.4839 520.10206 164.65138 c
521.50732 164.65138 l
521.50732 164.65137 l
h
519.51514 159.54785 m
519.49463 159.27881 519.271 159.0708 519.00147 159.0708 c
519.00049 159.0708 519.00049 159.0708 519.00049 159.0708 c
518.73096 159.0708 518.50635 159.27783 518.48584 159.54687 c
518.48584 159.54687 518.28369 162.14794 518.08838 164.65136 c
519.90186 164.65136 l
519.6958 161.94043 519.51514 159.54785 519.51514 159.54785 c
h
517.73291 170.14648 m
517.3833 170.14648 l
517.45947 171.35937 517.50928 172.16015 517.50928 172.16015 c
517.52686 172.43115 517.74951 172.64208 518.021 172.64453 c
518.29248 172.64648 518.51905 172.43848 518.53955 172.16797 c
518.53955 172.16797 518.76709 169.25342 518.9917 166.3584 c
517.73291 166.3584 l
517.73291 170.14648 l
h
519.46143 172.51465 m
519.48194 172.7832 519.70459 172.99121 519.97413 172.99219 c
519.97511 172.99219 519.97511 172.99219 519.97608 172.99219 c
520.24463 172.99219 520.46827 172.78565 520.49073 172.51807 c
520.49073 172.51807 520.74171 169.47315 520.99757 166.3584 c
518.99562 166.3584 l
519.22803 169.43555 519.46143 172.51465 519.46143 172.51465 c
h
f
Q
Q
Q
Q
Q
showpage
%%PageTrailer
pdfEndPage
%%Trailer
end
%%DocumentSuppliedResources:
%%EOF
